<?xml version="1.0" encoding="utf-8"?>
<!-- Generator: Adobe Illustrator 16.0.3, SVG Export Plug-In . SVG Version: 6.00 Build 0)  -->
<!DOCTYPE svg PUBLIC "-//W3C//DTD SVG 1.1//EN" "http://www.w3.org/Graphics/SVG/1.1/DTD/svg11.dtd">
<svg version="1.1"
	 id="Layer_1" image-rendering="optimizeQuality" text-rendering="geometricPrecision" shape-rendering="geometricPrecision"
	 xmlns="http://www.w3.org/2000/svg" xmlns:xlink="http://www.w3.org/1999/xlink" x="0px" y="0px" width="1024px" height="1024px"
	 viewBox="0 0 1024 1024" enable-background="new 0 0 1024 1024" xml:space="preserve">
<title>server_client_exchange icon</title>
<desc>server_client_exchange icon from the IconExperience.com O-Collection. Copyright by INCORS GmbH (www.incors.com).</desc>
<path id="curve6" fill="#636363" d="M496,960h48c17.601,0,32-14.4,32-32v-32h-77.5c18.5-17,24.7-41.801,18.5-64h379V448H384v260
	c-7-2.601-14.5-4-22.4-4H320V448c0-35.301,28.8-64,64-64h512c35.3,0,64,28.8,64,64v384c0,35.199-28.8,64-64,64H704v32
	c0,17.6,14.4,32,32,32h48c8.8,0,16,7.199,16,16v16H480v-16C480,967.199,487.2,960,496,960z"/>
<path id="curve5" fill="#A1C057" d="M160,544h128v64H160V544z"/>
<path id="curve4" fill="#A1C057" d="M160,384h152.5C297.3,401,288,423.4,288,448l0,0H160V384z"/>
<path id="curve3" fill="#A1C057" d="M160,224h256v64H160V224z"/>
<path id="curve2" fill="#636363" d="M96,64h384c14.3,0,26.4,9.399,30.5,22.3l-47,39.7c-20.1,17.1-26.9,42.899-20.4,66H128v128h320
	V204.3c3.7,7,8.7,13.5,15.1,19.1l48.9,42.2V352c-128,0-256,0-384,0v128h160v32H128v128h160v64H64V96C64,78.4,78.4,64,96,64z M416,96
	c-17.7,0-32,14.3-32,32s14.3,32,32,32s32-14.3,32-32S433.7,96,416,96z"/>
<path id="curve1" fill="#8FCAE7" d="M361.6,736H288c-6.8,0-12.6,4-15,10.3c-2.4,6.399-0.8,13.3,4.4,17.7l42.6,36h-64
	c-17.6,0-32-14.4-32-32v-32h-96v32c0,70.5,57.5,128,128,128h32h32l-42.6,36c-5.1,4.399-6.8,11.3-4.4,17.699
	C275.4,956,281.2,960,288,960h73.6c8.1,0,15-2.801,21.2-8l93-78.7c15.4-12.9,15.3-35.5,0.101-48.7L382.8,744
	C376.6,738.699,369.7,736,361.6,736z"/>
<path id="curve0" fill="#8FCAE7" d="M598.4,287.8H672c6.8,0,12.601-4,15-10.3c2.4-6.4,0.8-13.3-4.399-17.7L640,223.8h64
	c17.601,0,32,14.4,32,32V352h96v-96.2c0-70.5-57.5-128-128-128h-32h-32l42.601-36c5.199-4.4,6.8-11.3,4.399-17.7
	c-2.399-6.3-8.2-10.3-15-10.3h-73.6c-8.101,0-15,2.8-21.2,8l-93,78.7c-15.4,12.899-15.3,35.5-0.101,48.7l93.101,80.6
	C583.4,285.1,590.3,287.8,598.4,287.8z"/>
</svg>